ISSS608 - Visual Analytics & Applications - Take-Home Exercise 01
…
# Check if 'participants' contains any duplicate rows
has_duplicates <- any(duplicated(participants_raw))

if (has_duplicates) {
  # contains duplicate rows
  # extracting only the unique participants records
  participants <- distinct(participants_raw)
} else {
  # No duplicate rows
  # since there are no duplicate rows, we will just replicate participants data for consistency
  participants <- participants_raw
}
participants

# A tibble: 1,011 × 7
   participantId householdSize haveKids   age educationLevel      interestGroup
           <dbl>         <dbl> <lgl>    <dbl> <chr>               <chr>        
 1             0             3 TRUE        36 HighSchoolOrCollege H            
 2             1             3 TRUE        25 HighSchoolOrCollege B            
 3             2             3 TRUE        35 HighSchoolOrCollege A            
 4             3             3 TRUE        21 HighSchoolOrCollege I            
 5             4             3 TRUE        43 Bachelors           H            
 6             5             3 TRUE        32 HighSchoolOrCollege D            
 7             6             3 TRUE        26 HighSchoolOrCollege I            
 8             7             3 TRUE        27 Bachelors           A            
 9             8             3 TRUE        20 Bachelors           G            
10             9             3 TRUE        35 Bachelors           D            
# ℹ 1,001 more rows
# ℹ 1 more variable: joviality <dbl>
…
if (has_duplicates) {
  # contains duplicate rows
  
  # Remove duplicate records from the 'finjournal_raw' data frame
  finjournal <- distinct(finjournal_raw)
} else {
  # No duplicate rows
  # if there are no duplicate rows, we will just replicate finjournal_raw data for consistency
  finjournal <- finjournal_raw
}
finjournal

# A tibble: 1,512,523 × 4
   participantId timestamp           category  amount
           <dbl> <dttm>              <chr>      <dbl>
 1             0 2022-03-01 00:00:00 Wage      2473. 
 2             0 2022-03-01 00:00:00 Shelter   -555. 
 3             0 2022-03-01 00:00:00 Education  -38.0
 4             1 2022-03-01 00:00:00 Wage      2047. 
 5             1 2022-03-01 00:00:00 Shelter   -555. 
 6             1 2022-03-01 00:00:00 Education  -38.0
 7             2 2022-03-01 00:00:00 Wage      2437. 
 8             2 2022-03-01 00:00:00 Shelter   -557. 
 9             2 2022-03-01 00:00:00 Education  -12.8
10             3 2022-03-01 00:00:00 Wage      2367. 
# ℹ 1,512,513 more rows
…
